…
``` r
shot_dist = merge(
  shots_data %>%
  group_by(shot_distance) %>%
  summarise(total_shots = length(shot_made_flag)) ,
  shots_data %>%
  group_by(shot_distance) %>%
    summarize(total_made = sum(shot_made_flag == 'made shot'))
  ) %>%
  group_by(shot_distance) %>%
  summarise(made_shot_prop = total_made / total_shots)
shot_dist
```

    ## # A tibble: 56 x 2
    ##    shot_distance made_shot_prop
    ##            <int>          <dbl>
    ##  1             0          0.841
    ##  2             1          0.668
    ##  3             2          0.534
    ##  4             3          0.373
    ##  5             4          0.411
    ##  6             5          0.286
    ##  7             6          0.396
    ##  8             7          0.395
    ##  9             8          0.463
    ## 10             9          0.321
    ## # ... with 46 more rows
…
